{
  "project_info": {
    "project_number": "368893374548",
    "firebase_url": "https://piperpay.firebaseio.com",
    "project_id": "piperpay",
    "storage_bucket": "piperpay.appspot.com"
  },
  "client": [
    {
      "client_info": {
        "mobilesdk_app_id": "1:368893374548:android:70dc8b424ed693e5",
        "android_client_info": {
          "package_name": "com.piperpay.pip_pay"
        }
      },
      "oauth_client": [
        {
          "client_id": "368893374548-pf515d7eqejbgo0896bi84k20dg6ilea.apps.googleusercontent.com",
          "client_type": 3
        }
      ],
      "api_key": [
        {
          "current_key": "AIzaSyCzpPQBAIjNF0xuwgTFkkbbI6fzg2YmmRU"
        }
      ],
      "services": {
        "appinvite_service": {
          "other_platform_oauth_client": [
            {
              "client_id": "368893374548-pf515d7eqejbgo0896bi84k20dg6ilea.apps.googleusercontent.com",
              "client_type": 3
            }
          ]
        }
      }
    }
  ],
  "configuration_version": "1"
}